…
#### Fist, I want to look at the overall model ton decide the variables for my model:

``` r
birthweight_df %>%
 lm(bwt ~ . , data = .) %>%
 broom::tidy()
```

    ## # A tibble: 25 x 5
    ##    term               estimate std.error statistic   p.value
    ##    <chr>                 <dbl>     <dbl>     <dbl>     <dbl>
    ##  1 (Intercept)       -6307.      659.      -9.57   1.80e- 21
    ##  2 babysexmale         -28.7       8.47    -3.39   7.02e-  4
    ##  3 bhead               131.        3.45    37.9    2.16e-271
    ##  4 blength              75.0       2.02    37.1    1.75e-261
    ##  5 delwt                 4.10      0.395   10.4    5.62e- 25
    ##  6 fincome               0.290     0.180    1.61   1.07e-  1
    ##  7 fraceBlack           -6.90     78.8     -0.0876 9.30e-  1
    ##  8 fraceOther          -16.9      97.6     -0.174  8.62e-  1
    ##  9 fracePuerto Rican   -68.2      78.5     -0.870  3.85e-  1
    ## 10 fraceWhite          -21.2      69.3     -0.306  7.59e-  1
    ## # … with 15 more rows
…
